<?xml version="1.0" encoding="utf-8"?>
<!-- Generator: Adobe Illustrator 16.0.0, SVG Export Plug-In . SVG Version: 6.00 Build 0)  -->
<!DOCTYPE svg PUBLIC "-//W3C//DTD SVG 1.1//EN" "http://www.w3.org/Graphics/SVG/1.1/DTD/svg11.dtd">
<svg version="1.1" id="Layer_1" xmlns="http://www.w3.org/2000/svg" xmlns:xlink="http://www.w3.org/1999/xlink" x="0px" y="0px"
	 width="286px" height="171px" viewBox="0 -111 286 171" enable-background="new 0 -111 286 171" xml:space="preserve">
<title>Group 18</title>
<desc>Created with Sketch.</desc>
<g>
	<g>
		<path fill="#FFFFFF" d="M269.653,1.417c-0.572-1.026-1.197-2.146-1.873-3.39c2.935-3.396,4.612-7.057,4.611-10.114
			c-0.199-2.885-2.016-4.824-4.521-4.824c-3.653,0-6.625,3.841-6.625,8.562c0,1.732,0.385,3.517,1.176,5.444
			c-0.871,0.882-1.661,1.748-2.679,2.937c-0.324,0.433-0.518,0.948-0.518,1.383c0,0.746,0.289,1.423,0.73,1.771
			c0.367,0.368,0.922,0.562,1.603,0.562c0.651,0,1.295-0.319,1.73-0.866c0.36-0.479,0.769-0.966,1.2-1.429
			c4.049,7.114,5.347,9.636,5.427,13.166c-0.158,6.566-4.733,10.979-11.388,10.979c-4.875,0-8.694-3.635-8.695-8.241
			c0.336-5.119,3.356-8.559,7.517-8.559c2.049,0,3.835,2.025,3.981,4.486c0,1.281,0.966,2.248,2.248,2.248
			c1.281,0,2.248-0.967,2.247-2.266c-0.179-4.943-4.02-8.965-8.561-8.965c-4.338,0-7.76,2.019-9.818,5.552
			c-0.106,0.14-0.213,0.282-0.296,0.45c-5.351,11.578-8.189,15.294-11.685,15.294c-1.228,0-2.045-0.519-2.045-3.055
			c0-3.038,1.494-7.133,3.075-11.468c1.716-4.702,3.49-9.566,3.49-13.532c0-5.568-2.823-8.393-8.393-8.393
			c-2.211,0-4.391,0.922-6.619,2.809c0.135-0.588,0.014-1.219-0.343-1.736c-0.425-0.619-1.126-0.987-1.876-0.987
			c-0.995,0-1.835,0.591-2.136,1.494c-1.679,4.605-3.887,10.842-6.224,17.445c-0.224,0.631-0.449,1.268-0.675,1.905
			c-0.059,0.093-0.127,0.172-0.178,0.275l-0.087,0.255c-2.662,5.969-6.684,14.987-11.577,14.987c-1.262,0-2.044-0.511-2.044-3.055
			c0-3.238,2.249-9.513,4.854-16.776l5.125-13.846c0.275-0.66,0.193-1.451-0.215-2.063c-0.406-0.61-1.072-0.959-1.827-0.959
			c-0.977,0-1.814,0.552-2.133,1.402l-0.292,0.756c-0.248,0.637-0.515,1.324-0.787,2.06c-1.62-2.521-4.158-3.798-7.562-3.798
			c-7.687,0-14.657,11.121-17.601,21.628c-4.544,10.471-10.388,16.65-18.311,19.652C169.229,7.394,171.835,0.5,174.271-6.5h6.399
			c1.239,0,2.248-0.76,2.248-2c0-1.197-1.051-2-2.248-2h-4.7c0.741-2,1.599-4.186,2.287-5.84c3.616-9.6,7.43-14.721,11.027-14.721
			c0.066,0,0.132-0.021,0.224-0.017c1.09,0,1.841,0.396,2.349,1.238c0.404,0.811,1.144,1.27,2.028,1.27
			c0.331,0,0.638-0.106,0.995-0.234c0.772-0.44,1.253-1.215,1.253-2.018c0-0.35-0.112-0.694-0.303-0.973
			c-1.253-2.505-3.558-3.885-6.491-3.885c-5.853,0-10.872,5.836-15.348,17.655l-2.827,7.525h-6.487c-1.239,0-2.249,0.76-2.249,2
			c0,1.281,0.967,2,2.249,2h4.775c-2.743,7-4.774,13.282-7.116,20.032c-1.83,5.276-3.902,11.329-6.609,18.798
			c-1.869,0.475-3.898,0.92-6.372,1.315c-9.837,1.804-14.619,5.585-14.619,11.52c0,2.542,0.815,4.553,2.357,6.107
			c1.55,1.562,3.717,2.228,6.267,2.228h0.196c6.287,0,11.563-5.871,15.686-17.518c8.021-2.408,14.016-6.521,18.825-13.311
			c0.636,4.579,3.283,7.38,7.231,7.38c3.503,0,6.901-2.065,10.115-6.183c0.444,3.861,2.837,6.213,6.467,6.213
			c2.115,0,3.988-0.744,5.663-1.976c0.087,0.834,0.634,1.557,1.533,1.883c1.208,0.331,2.468-0.324,2.854-1.48l5.773-16.332
			l0.04-0.099c0.009-0.028,0.018-0.061,0.027-0.089l0.048-0.137c2.764-7.342,9.053-18.207,13.775-18.207
			c2.621,0,3.896,1.275,3.896,3.896c0,3.503-1.533,7.561-3.156,11.856c-1.676,4.436-3.409,9.023-3.409,13.144
			c0,4.658,2.506,7.551,6.541,7.551c4.036,0,7.202-2.209,10.8-8.093c1.933,4.731,6.695,8.093,12.262,8.093
			c9.185,0,15.716-6.32,15.884-15.386C274.341,9.827,272.676,6.84,269.653,1.417z M266.864-11.798
			c0.452-0.452,0.783-0.574,0.898-0.576c0.016,0.032,0.049,0.122,0.049,0.32c0,1.487-0.889,3.509-1.914,5.139
			c-0.108-0.553-0.155-1.031-0.155-1.52C265.742-9.456,265.938-10.87,266.864-11.798z M183.819,12.173
			c0.054-0.158,0.104-0.331,0.142-0.512c0.802-2.658,1.867-5.407,3.094-7.876c3.114-6.264,6.74-9.897,9.949-9.972
			c2.845,0.003,4.714,2.141,4.897,5.589l-1.982,5.287c-3.266,8.325-8.199,20.907-14.704,20.907c-1.305,0-2.803-0.644-2.803-5.654
			c0.043-2.102,0.546-4.825,1.372-7.689C183.796,12.226,183.808,12.2,183.819,12.173z M154.022,37.412
			c-2.669,7.727-6.283,11.844-10.486,11.921l-0.173,0.003c-2.509,0-4.131-1.662-4.133-4.194c0.318-3.655,3.496-5.676,10.964-6.975
			C151.458,37.956,152.704,37.691,154.022,37.412z"/>
		<path fill="#FFFFFF" d="M25.598-8.347c-6.668,0-14.735,4.48-17.38,17.056c-1.185,5.582-0.582,9.9,1.792,12.832
			c2.662,3.285,6.678,3.776,8.836,3.776c4.997,0,8.693-2.348,12.705-5.874c0.188-0.165,0.218-0.445,0.07-0.646l-2.291-3.111
			c-0.082-0.112-0.207-0.183-0.345-0.194c-0.142-0.008-0.274,0.035-0.374,0.131c-2.452,2.344-5.698,5.034-9.062,5.034
			c-1.998,0-3.71-0.753-4.821-2.12c-1.67-2.058-2.054-5.53-1.108-10.038C16.053-2.808,22.818-3.687,24.834-3.687
			c3.068,0,4.936,1.687,6.056,5.468c0.042,0.142,0.146,0.257,0.284,0.311c0.137,0.055,0.291,0.044,0.419-0.03l4.345-2.525
			c0.213-0.124,0.297-0.389,0.196-0.613C33.929-5.97,30.482-8.347,25.598-8.347z"/>
		<path fill="#FFFFFF" d="M57.592-8.347c-3.266,0-6.758,1.517-9.767,4.207l3.25-15.133c0.03-0.143-0.005-0.112-0.097-0.226
			c-0.09-0.113-0.229-0.002-0.373-0.002h-4.403c-0.227,0-0.423-0.018-0.47,0.203l-9.277,43.476c-0.029,0.142,0.006,0.16,0.098,0.272
			c0.091,0.112,0.229,0.049,0.373,0.049h4.403c0.228,0,0.423-0.074,0.47-0.295l2.582-12.201c0.777-3.739,1.449-6.947,3.74-10.221
			c1.857-2.645,5.281-5.48,8.414-5.48c0.63,0,1.104,0.21,1.447,0.633c1.404,1.72,0.416,6.556-0.006,8.618l-3.966,18.534
			c-0.03,0.142,0.005,0.206,0.097,0.318c0.09,0.112,0.229,0.094,0.373,0.094h4.403c0.228,0,0.423-0.074,0.47-0.295L63.17,6.222
			c1.352-6.431,1.158-10.581-0.59-12.735C61.244-8.157,59.213-8.347,57.592-8.347z"/>
		<path fill="#FFFFFF" d="M85.536-8.347c-10.019,0-15.528,9.124-17.203,16.939c-1.178,5.646-0.505,10.38,1.896,13.332
			c1.83,2.251,4.57,3.393,8.145,3.393c4.572,0,8.886-1.514,12.865-3.147c0.224-0.092,0.344-0.336,0.281-0.57l-1.057-3.934
			c-0.039-0.142-0.14-0.26-0.275-0.317c-0.135-0.057-0.289-0.051-0.42,0.021c-3.999,2.182-7.457,3.288-10.279,3.288
			c-2.238,0-3.91-0.454-4.969-1.733c-1.428-1.725-1.793-4.424-1.088-8.424h20.5c0.23,0,0.428-0.357,0.473-0.584l0.469-2.507
			c0.16-0.839,1.452-8.37-2.128-12.692C91.089-7.284,88.664-8.347,85.536-8.347z M84.42-3.661c1.674,0,3.02,0.609,4.004,1.787
			C89.805-0.219,90.342,2.5,89.885,5.5H74.45C77.062-1.5,80.24-3.661,84.42-3.661z"/>
		<path fill="#FFFFFF" d="M116.826-8.347c-6.668,0-14.734,4.48-17.379,17.056c-1.185,5.582-0.582,9.9,1.793,12.832
			c2.661,3.285,6.678,3.776,8.834,3.776c4.998,0,8.694-2.348,12.706-5.874c0.188-0.165,0.218-0.445,0.069-0.646l-2.289-3.111
			c-0.082-0.112-0.208-0.183-0.346-0.194c-0.143-0.008-0.273,0.035-0.374,0.131c-2.452,2.344-5.698,5.034-9.062,5.034
			c-1.998,0-3.71-0.753-4.82-2.12c-1.672-2.058-2.055-5.53-1.109-10.038c2.433-11.307,9.198-12.186,11.213-12.186
			c3.068,0,4.936,1.687,6.057,5.468c0.042,0.142,0.146,0.257,0.283,0.311c0.139,0.055,0.292,0.044,0.42-0.03l4.345-2.525
			c0.212-0.124,0.298-0.389,0.196-0.613C125.158-5.97,121.711-8.347,116.826-8.347z"/>
		<path fill="#FFFFFF" d="M138.788,10.464l8.983,13.901c0.089,0.137,0.241,0.135,0.404,0.135h5.812c0.007,0,0.013,0,0.02,0
			c0.265,0,0.48-0.129,0.48-0.395c0-0.146-0.065-0.235-0.168-0.323L142.833,7.231c3.768-3.134,5.998-5.231,9.954-8.972
			c1.515-1.432,3.275-3.091,5.463-5.135c0.145-0.134,0.191-0.24,0.119-0.425c-0.072-0.183-0.249-0.2-0.447-0.2h-5.577
			c-0.138,0-0.27-0.041-0.36,0.062c-4.123,4.666-8.924,8.744-13.613,12.728l5.226-24.538c0.03-0.142-0.005-0.125-0.097-0.237
			c-0.091-0.113-0.229-0.015-0.373-0.015h-4.404c-0.227,0-0.422-0.018-0.47,0.203l-9.276,43.476
			c-0.029,0.142,0.006,0.16,0.097,0.272s0.229,0.049,0.374,0.049h4.402c0.229,0,0.424-0.074,0.471-0.295l2.607-12.242
			L138.788,10.464z"/>
	</g>
	<g>
		<g>
			<g>
				<path fill="#FFFFFF" d="M156.424-80.306c2.263-2.052,4.755-4.03,7.476-5.812c1.183-0.776,2.768-0.443,3.543,0.738
					c0.774,1.183,0.443,2.769-0.738,3.543c-1.283,0.841-2.515,1.733-3.691,2.66"/>
			</g>
		</g>
		<g>
			<path fill="#FFFFFF" d="M174.585-73.576c-0.309-1.032-1.176-1.798-2.237-1.979l-10.849-1.84
				c-11.584,9.442-17.913,21.983-17.983,22.125c-0.404,0.811-1.195,1.358-2.097,1.45c-0.089,0.009-0.178,0.013-0.267,0.013
				c-0.807,0-1.575-0.371-2.078-1.014l-9.559-12.239c-0.896-1.148-0.693-2.806,0.455-3.703c1.148-0.896,2.807-0.692,3.703,0.455
				l7.119,9.116c2.461-4.08,7.166-10.99,13.988-17.343l-2.214-0.375l-8.45-18.197c-0.454-0.977-1.422-1.611-2.498-1.636
				c-0.542-0.013-1.064,0.13-1.513,0.396c-0.442,0.263-0.812,0.646-1.06,1.12l-9.304,17.776l-19.918,2.414
				c-0.397,0.048-0.772,0.179-1.104,0.376c-0.561,0.333-1,0.856-1.223,1.494c-0.357,1.016-0.107,2.146,0.646,2.915l14.03,14.341
				l-3.858,19.688c-0.208,1.057,0.203,2.139,1.059,2.792s2.008,0.764,2.973,0.286l17.975-8.912l17.532,9.754
				c0.884,0.492,1.959,0.472,2.82-0.041c0.055-0.033,0.108-0.067,0.162-0.104c0.886-0.612,1.347-1.674,1.19-2.739l-2.922-19.849
				l14.695-13.66C174.589-71.427,174.893-72.544,174.585-73.576z"/>
		</g>
	</g>
</g>
</svg>
